\contentsline {section}{\numberline {1}Goal}{1}{section.1}
\contentsline {section}{\numberline {2}Final Report}{1}{section.2}
\contentsline {section}{\numberline {3}Next Steps}{1}{section.3}
\contentsline {section}{\numberline {4}Design and Architecture}{1}{section.4}
\contentsline {section}{\numberline {5}SEP Project}{2}{section.5}
\contentsline {section}{\numberline {6}Other}{2}{section.6}
\contentsline {section}{Action List}{2}{section.6}
