id,step,week_number,step_number,reviewer_id,assignment_id,guideline_one_feedback,guideline_two_feedback,guideline_three_feedback,created_at
249693,4.5,4,5,10fe165d-3efe-40e0-997d-8e5037152131,155128,"The business objective is often to increase process speed or reduce cycle time; to increase quality; or to reduce costs, such as labor, materials, scrap, or capital costs. In practice, a management decision to invest in business process modeling is often motiv","Change management programs are typically involved to put any improved business processes into practice. With advances in software design, the vision of BPM models becoming fully executable","time; to increase quality; or to reduce costs, such as labor, materials, scrap, or capital costs. In practice, a management decision to invest in business process modeling is often mo",2016-11-17 15:59:52 UTC
251185,4.5,4,5,49bba881-f654-4064-b05f-2597ff80d326,155373,That's so well.,"Yes, it correctly.","Yes, it correctly.",2016-11-21 13:29:12 UTC
255076,4.5,4,5,121075a5-212b-4992-91a3-9d170bb65bd0,155373,Good,Excellent,Fantastic,2016-12-01 14:59:03 UTC
255125,4.5,4,5,46bde6e4-4eca-4c6b-b1eb-bb2478a76247,158553,"Yes, it has.","Yes, it has.","Yes, it has.",2016-12-01 17:03:25 UTC
256561,4.5,4,5,634158f1-416b-4cd5-9b42-51eff890b4c3,158585,"Yes, the learner chosen an appropriate process discovery technique, used the correct settings and explained their choices very well.","Yes, the resulting process model been interpreted correctly.","Yes, conformance checking been executed and interpreted correctly.",2016-12-06 13:36:28 UTC
256966,4.5,4,5,c64f70f5-6b1f-4a23-b93c-37e4b28cc2be,159430,"Sorry, I do not speak Spanish and I'm therefore unable to comment on this assignment.","Sorry, I do not speak Spanish and I'm therefore unable to comment on this assignment.","Sorry, I do not speak Spanish and I'm therefore unable to comment on this assignment.",2016-12-07 22:23:38 UTC
256976,4.5,4,5,f4d78559-6a69-44ac-aa7b-856e5a9ecd1c,159694,The discovery tehnique was well chosen. However there were not arguments given for choosing this method. The execution was ok. Petri Net looks fine.,I am sorry to say that there was little interpretation for the model itself provided. The comment about being well-structured is totally correct.,Fugures very-very slightly different from mine but I assume it is because of a very little difference in data filtering. Magnitude and interpretation absolutely correct.,2016-12-07 23:08:13 UTC
256977,4.5,4,5,f4d78559-6a69-44ac-aa7b-856e5a9ecd1c,158585,"Sorry Murat, it seems you evaluated yourself and as no details are given, I can not add more to it.","Sorry Murat, it seems you evaluated yourself and as no details are given, I can not add more to it.","Sorry Murat, it seems you evaluated yourself and as no details are given, I can not add more to it.",2016-12-07 23:10:19 UTC
256978,4.5,4,5,f4d78559-6a69-44ac-aa7b-856e5a9ecd1c,155128,"Hi Chichi, I am sorry to say but you have not shared much details about your solution so I can not add much to it.","Hi Chichi, I am sorry to say but you have not shared much details about your solution so I can not add much to it.","Hi Chichi, I am sorry to say but you have not shared much details about your solution so I can not add much to it.",2016-12-07 23:12:47 UTC
257424,4.5,4,5,fbb9e496-be06-4457-adbe-5a3defc28cf8,159837,"I do not find any assignment done.Where is the assignment?

Is there any file to be opened?

I guess the person has not submitted any work.",No Assignment so difficult to make comments,"No assignment work submitted

No comments

",2016-12-09 20:58:51 UTC
257428,4.5,4,5,fbb9e496-be06-4457-adbe-5a3defc28cf8,159698,"Well done and good presentation.

The candidate should have presented comparison of different process models to show their strengths and weaknesses.",Good interpretation.,Yes the work done in line with the requirements,2016-12-09 21:03:06 UTC
257429,4.5,4,5,fbb9e496-be06-4457-adbe-5a3defc28cf8,158553,"No Assignment done.
","Assignment file missing.

No comments",No assignment submitted so difficult to review.,2016-12-09 21:05:01 UTC
257569,4.5,4,5,839ba674-a348-49bc-b631-f32d8854618d,159867,The assignment doesn't include explanation about settings or choices,The numerical values seems correct but there is no interpretation explanation.,I can not see any interpretation,2016-12-10 16:48:42 UTC
257572,4.5,4,5,839ba674-a348-49bc-b631-f32d8854618d,159698,Yes. He knows every tool's purpose and tried it. ,Interpretation looks correct but I wish more detailed looks could be done.,Conformance checking was done for several times. And the analysis is good.,2016-12-10 16:56:19 UTC
257653,4.5,4,5,40d23d1b-5113-45f4-abb3-6df14b0477ab,160027,"The learner has chosen the right process discovery technique and explained his choose very well. Furthermore, he also explained why he did not choose the other models and also gave an overview which settings he used. ",Absolutely and also explained very well. ,With the conformance check the learner also indicated bottlenecks which might lead to problems.,2016-12-11 07:18:26 UTC
257654,4.5,4,5,40d23d1b-5113-45f4-abb3-6df14b0477ab,159837,Rombout just copied the questions with no answer. ,Rombout just copied the questions with no answer. ,Rombout just copied the questions with no answer. ,2016-12-11 07:19:23 UTC
257655,4.5,4,5,40d23d1b-5113-45f4-abb3-6df14b0477ab,159694,Rune has chosen the right technique however did not mentioned why he did not chose the other techniques. ,"Yes, interpretation is correct. ","Conformance check has been performed however, only on a high level basis. ",2016-12-11 07:20:35 UTC
257657,4.5,4,5,40d23d1b-5113-45f4-abb3-6df14b0477ab,159430,"guess this is spanish which i hardly can understand, sorry :(","guess this is spanish which i hardly can understand, sorry :(","guess this is spanish which i hardly can understand, sorry :(",2016-12-11 07:58:33 UTC
257658,4.5,4,5,40d23d1b-5113-45f4-abb3-6df14b0477ab,159867,"Hi, looks very good and correct. ",Yes,Yes,2016-12-11 07:59:11 UTC
257716,4.5,4,5,a92c2b9f-3697-4332-8f0b-b60341141aba,160107,"Markus' work is cleanly defined and shows he used the complete set of data.  He demonstrated knowledge of some models used in the industry i.e. Shell (BPMN).  Markus certainly showed that he had clear understanding of what he was looking at, and from the images shown, knew the tool well enough to get the right output.  

I could learn from Markus on his clear understanding of the tool.
I understood his approach, and for what he showed, it was good work.","The models do come through a little furry on review, but it does appear to be quite well interpreted.  Markus seems to be comfortable with the entire model, which was something that I thought would be too difficult to interpret like this.  Well done.","Yes.  Markus uses the same technique as I did, and was demonstrated in the lectures.  I think his interpretation was good, however the reference to source 16 was not something I could easily determine in his data.",2016-12-11 13:04:03 UTC
257829,4.5,4,5,a92c2b9f-3697-4332-8f0b-b60341141aba,160027,"Some excellent explanations of decisions here, and good analysis of the underlying sequences. Like SumSicut, I played with all the various transitions, but without exposing as much insight. Great work.  As my approach was slightly different, I cannot discuss settings, but well supported.","Seems to be interpreted ok. I'm reviewing on an iPad, so diagrams in Flickr are a little fuzzy, and names do not come through clearly.  ",Yes. Conformance checking appears solid. ,2016-12-11 21:04:11 UTC
258239,4.5,4,5,51667fb5-fc97-4971-8598-3aaf2646a334,160141,Yes. The choices were well explained and I believe that he used an appropriate discovery technique.,"Yes, I believe that it has.","I can find no fault with the analysis. It would, however, have been useful to see the global stats from the inspector, but seeing my problems with PROM, I can only applaud Steve in what he has achieved.",2016-12-13 17:07:57 UTC
258264,4.5,4,5,a92c2b9f-3697-4332-8f0b-b60341141aba,160481,"Michael, your approach seems sound. I filtered out the same things leaving just 5 event classes. I struggled for days with the assignment too, choosing to reboot at least 5 times and working well into the nights hoping the reporting would come.  So I share your frustration. I also struggled to find an appropriate photo channel, as social media channels I am on are private. Your Dropbox image isn't public, and requires the reviewer to have an account. I didn't see your image.",Seems approach is fine.,Conformance checking completed at 99% indicating a strong alignment to the model discovered.,2016-12-13 20:55:37 UTC
258559,4.5,4,5,66d3fac9-6eb7-4dfb-a9c1-0e9c813b0e8e,160607,"- Filtering the data is not discussed.
The argument in 1. about the few path variations is not quite correct; as can be seen in the visualizer, there is a large number of variations, even though most of them only have a very small number of traces. Nevertheless, the result of the BPMN miner seems fairly good, but only conformance and soundness are discussed, not the other items on the process model checklist. 
",The process model itself is not discussed.,"Unfortunately, conformance is evaluated based on the Petri net rather than the original BPMN that resulted from the original mining. 
For the PN, the interpretation is close to correct (99.2 % rather than 100%).",2016-12-15 22:12:47 UTC
259173,4.5,4,5,4d4bee0d-866e-4f87-aa84-d36697a3e869,160696,Yes the learner has explained as required. ,Yes.,Yes.,2016-12-21 18:56:45 UTC
259941,4.5,4,5,a33f4a7c-8272-40fb-8412-6cc194394635,161104,"No, nothing submitted.","No, nothing submitted.","No, nothing submitted.",2017-01-03 14:28:12 UTC
