id,first_name,last_name,team_role,user_role
5b5d06d7-e705-4370-b7dd-db501d62cf62,Joos,Buijs,lead_educator,organisation_admin
7dcf51a0-80ec-488c-95e6-362981b8792b,Remi,Brochenin,mentor,organisation_admin
