\contentsline {section}{\numberline {1}Goal}{1}{section.1}
\contentsline {section}{\numberline {2}Brief discussion of Agenda}{1}{section.2}
\contentsline {section}{\numberline {3}Presentation of progress}{1}{section.3}
\contentsline {section}{\numberline {4}Presentation of future plan and goals}{1}{section.4}
\contentsline {section}{\numberline {5}Open discussion and questions}{1}{section.5}
\contentsline {section}{Action List}{2}{section.5}
