\contentsline {section}{\numberline {1}Goal}{1}{section.1}
\contentsline {section}{\numberline {2}Meetings schedule}{1}{section.2}
\contentsline {section}{\numberline {3}SEP Project}{1}{section.3}
\contentsline {section}{\numberline {4}Meeting with Hilde}{2}{section.4}
\contentsline {section}{\numberline {5}Other}{2}{section.5}
\contentsline {section}{Action List}{2}{section.5}
