\contentsline {section}{\numberline {1}Goal}{1}{section.1}
\contentsline {section}{\numberline {2}Meeting points}{1}{section.2}
\contentsline {subsection}{\numberline {2.1}General}{1}{subsection.2.1}
\contentsline {subsection}{\numberline {2.2}Specific}{1}{subsection.2.2}
\contentsline {section}{\numberline {3}Remark}{2}{section.3}
