\contentsline {section}{\numberline {1}Goal}{1}{section.1}
\contentsline {section}{\numberline {2}Meeting Points}{1}{section.2}
\contentsline {subsection}{\numberline {2.1}Discussion with Joos}{1}{subsection.2.1}
\contentsline {subsection}{\numberline {2.2}Project Discussion}{1}{subsection.2.2}
\contentsline {section}{Action List}{1}{subsection.2.2}
