\contentsline {section}{\numberline {1}Goal}{1}{section.1}
\contentsline {section}{\numberline {2}Progress}{1}{section.2}
\contentsline {subsection}{\numberline {2.1}Requirements}{1}{subsection.2.1}
\contentsline {subsection}{\numberline {2.2}SEP Project}{1}{subsection.2.2}
\contentsline {subsection}{\numberline {2.3}Prototype}{2}{subsection.2.3}
\contentsline {subsection}{\numberline {2.4}General}{2}{subsection.2.4}
\contentsline {section}{\numberline {3}Future Plans}{2}{section.3}
\contentsline {subsection}{\numberline {3.1}Design}{2}{subsection.3.1}
\contentsline {subsection}{\numberline {3.2}Prototype tutorial}{2}{subsection.3.2}
\contentsline {subsection}{\numberline {3.3}General}{2}{subsection.3.3}
\contentsline {section}{\numberline {4}Evaluation feedback}{2}{section.4}
\contentsline {section}{Action List}{2}{section.4}
